Text mining with Twitter data - 2 Use case Twitter text mining
…
#Retweet activity per user
mental %>%
  arrange(desc(retweets)) %>%
  select(user_id, post_text, retweets)

# A tibble: 20,000 x 3
      user_id post_text                                     retweets
        <dbl> <chr>                                            <dbl>
 1  490044008 RT @omgAdamSaleh: We got kicked out of a @De~   839540
 2 3249600438 RT @POTUS: Thank you for everything. My last~   822450
 3 1497350173 RT @POTUS: Thank you for everything. My last~   820245
 4 1306425758 RT @Louis_Tomlinson: Our fans support really~   402946
 5 1497350173 RT @HamillHimself: no words #Devastated http~   358548
 6 3249600438 RT @HamillHimself: no words #Devastated http~   358536
 7  171999132 RT @HamillHimself: no words #Devastated http~   358510
 8 1306425758 RT @Louis_Tomlinson: @NaughtyBoyMusic Jesus ~   341695
 9 1306425758 RT @Louis_Tomlinson: @NaughtyBoyMusic good f~   306473
10  490044008 RT @edsheeran: Hello 2017... https://t.co/1U~   273872
# i 19,990 more rows

#Tweets und Retweets per User
mental %>%
  group_by(user_id) %>%
  summarize(tweets = n(),
            retweetnr = sum(retweets)) %>%
  arrange(desc(tweets)) %>%
  arrange(desc(retweetnr))

# A tibble: 72 x 3
      user_id tweets retweetnr
        <dbl>  <int>     <dbl>
 1 1497350173    792   7004039
 2  490044008   2117   5379581
 3 1306425758    306   4810463
 4 3045320288    633   4402064
 5 3249600438   1504   4131286
 6  324294391    215    765268
 7  171999132    121    463537
 8   18831261    543    317468
 9   49548465    352    197019
10 1015648590     84    175150
# i 62 more rows

#Proportion Likes and Retweets per User
mental %>%
  select(user_id, post_text, retweets, favourites) %>%
  mutate(ratio = (favourites + 1) / (retweets + 1)) %>% # to avoid zero
  arrange(desc(ratio))

# A tibble: 20,000 x 5
      user_id post_text                    retweets favourites ratio
        <dbl> <chr>                           <dbl>      <dbl> <dbl>
 1 2660477449 "@BenBuckwalter i was diagn~        0      39008 39009
 2 2660477449 "@JordanSweeto i hope whate~        0      39008 39009
 3 2660477449 "@BenBuckwalter i would!"           0      39008 39009
 4 2660477449 "@BenBuckwalter i feel like~        0      39008 39009
 5 2660477449 "@BryanStars I love you,  y~        0      39008 39009
 6 2660477449 "@BenBuckwalter me! I volun~        0      39008 39009
 7 2660477449 "I'm getting tired of your ~        0      39008 39009
 8 2660477449 "@deefizzy you're amazing. ~        0      39008 39009
 9 2660477449 "@BenBuckwalter people tend~        0      39008 39009
10 2660477449 "@BenBuckwalter being notic~        0      39008 39009
# i 19,990 more rows
…
mental %>%
  mutate(hashtags = stringr::str_count(post_text, "#[a-zA-Z]"), sort = TRUE) %>%
  filter(hashtags < 6) %>%
  group_by(user_id) %>%
  summarize(tweets = n(),
            avg_retweets = exp(mean(log(retweets + 1))) - 1) %>%
  filter(tweets >= 30) %>%
  arrange(desc(avg_retweets))

# A tibble: 55 x 3
   user_id tweets avg_retweets
     <dbl>  <int>        <dbl>
 1 3.05e 9    633       229.  
 2 1.50e 9    792        74.8 
 3 7.40e 7     50        72.4 
 4 1.31e 9    306        59.8 
 5 1.72e 8    121        11.2 
 6 3.09e 7    142        11.1 
 7 3.25e 9   1504         6.85
 8 7.63e17    522         6.79
 9 6.32e 8    144         5.09
10 4.95e 7    352         4.26
# i 45 more rows
…
